…
<details>
<summary>Code</summary>

``` r
tb <- s |> 
  st_crop(lima) |> 
  aggregate(lima, mean) |> 
  as_tibble() |> 
  select(-geom)
tb
#> # A tibble: 455 × 2
#>    time                daily_max_temp
#>    <dttm>                         [K]
#>  1 2022-01-01 00:00:00           296.
#>  2 2022-01-02 00:00:00           296.
#>  3 2022-01-03 00:00:00           296.
#>  4 2022-01-04 00:00:00           296.
#>  5 2022-01-05 00:00:00           296.
#>  6 2022-01-06 00:00:00           296.
#>  7 2022-01-07 00:00:00           297.
#>  8 2022-01-08 00:00:00           297.
#>  9 2022-01-09 00:00:00           297.
#> 10 2022-01-10 00:00:00           298.
#> # ℹ 445 more rows
```
…
